# Alias OBJ Model File
# Exported from SketchUp, (c) 2000-2012 Trimble Navigation Limited
# File units = meters

mtllib arrowPointer.mtl

g Mesh1 Component1 skpB1A7_1 Model

usemtl _auto_
v -0.0230835 -0.728897 -0.181881
vt 67.4369 17
vn 0.796767 -0.604256 0.0061247
v 0.386308 -0.184894 0.230682
vt 40.4867 1
v -0.0272864 -0.73032 0.224495
vt 67.4369 1
f 1/1/1 2/2/1 3/3/1

v 0.390511 -0.183471 -0.175694
vt 40.4867 17
f 2/2/1 1/1/1 4/4/1

vt 67.4369 -9.61695
vn 0.570712 -0.424798 -0.702734
v 0.3397 -0.208699 -0.201709
vt 42.496 -8.20273
vt 40.4867 -9.61695
f 1/5/2 5/6/2 4/7/2

v -0.0227539 -0.686683 -0.207131
vt 66.1138 -8.20273
f 5/6/2 1/5/2 6/8/2

vt -47.8406 -27.9504
vn -0.557441 -0.422965 -0.714395
v -0.383688 -0.207524 -0.209186
vt -22.8997 -26.5362
vt -46.5175 -26.5362
f 1/9/3 7/10/3 6/11/3

v -0.434944 -0.18213 -0.184226
vt -20.8904 -27.9504
f 7/10/3 1/9/3 8/12/3

v -0.22858 -0.182466 -0.182093
vt 50.75 24.375
vn 0.0103418 0.00350129 -0.99994
vt 72.25 16.25
vt 50.75 32.5
f 9/13/4 1/14/4 8/15/4

v 0.184147 -0.183136 -0.177827
vt 50.75 8.125
f 10/16/4 1/14/4 9/13/4

vt 50.75 5.63993e-014
f 1/14/4 10/16/4 4/17/4

v 0.179945 -0.184559 0.228549
vt -8.125 1
vn 0.00158805 0.999993 0.00351789
vt -5.63993e-014 17
vt -8.125 17
f 11/18/5 4/19/5 10/20/5

vt 0 1
f 4/19/5 11/18/5 2/21/5

vt -50.75 8.125
vn -0.0103418 -0.00350129 0.99994
vt -72.25 16.25
vt -50.75 0
f 11/22/6 3/23/6 2/24/6

v -0.232783 -0.183889 0.224283
vt -50.75 24.375
f 12/25/6 3/23/6 11/22/6

v -0.439147 -0.183553 0.22215
vt -50.75 32.5
f 3/23/6 12/25/6 13/26/6

vt -24.375 1
vt -32.5 17
vt -32.5 1
f 12/27/5 8/28/5 13/29/5

vt -24.375 17
f 8/28/5 12/27/5 9/30/5

vt -46.2585 1
vn -0.987622 -0.15648 -0.0107623
v -0.432897 1.10691 -0.179691
vt 5.13777 17
vt -46.2585 17
f 12/31/7 14/32/7 9/33/7

v -0.4371 1.10549 0.226684
vt 5.13777 1
f 14/32/7 12/31/7 15/34/7

v 0.388355 1.10415 0.235217
vt -4.73695e-015 2.13163e-014
vt -4.73695e-015 32.5
f 12/25/6 16/35/6 15/36/6

f 16/35/6 12/25/6 11/22/6

vt 51.3963 17
vn 0.98712 -0.159688 0.00965006
vt 8.04718e-015 1
vt 51.3963 1
f 10/37/8 16/38/8 11/39/8

v 0.392558 1.10557 -0.171159
vt 9.00028e-015 17
f 16/38/8 10/37/8 17/40/8

vt 0 32.5
vt 0 5.69331e-014
f 10/16/4 14/41/4 17/42/4

f 14/41/4 10/16/4 9/13/4

v -0.40326 1.08187 -0.204874
vt 3.97969 -9.04604
vn -0.695492 -0.108886 -0.710236
vt -46.2585 -10.4514
vt 5.13777 -10.4514
f 18/43/9 9/44/9 14/45/9

v -0.198893 -0.207824 -0.207276
vt -47.4293 -9.04604
f 9/44/9 18/43/9 19/46/9

vt 0.987426 31.3419
v 0.154905 -0.208399 -0.203619
vt 51.75 9.2851
vt 51.75 23.2149
f 18/47/4 20/48/4 19/49/4

v 0.363367 1.08063 -0.19695
vt 0.987426 1.15809
f 20/48/4 18/47/4 21/50/4

vt -32.5 12.0966
vn 0.00839635 0.714021 -0.700074
vt -1.15809 13.502
vt -31.3419 13.502
f 14/51/10 21/52/10 18/53/10

vt -5.69331e-014 12.0966
f 21/52/10 14/51/10 17/54/10

vt -5.69331e-014 17
f 15/29/5 17/55/5 14/28/5

vt -2.13163e-014 1
f 17/55/5 15/29/5 16/56/5

vt -32.5 0.711566
vn -0.00613634 0.709101 0.70508
v 0.358639 1.07902 0.260223
vt -1.15809 -0.693784
vt -2.13163e-014 0.711566
f 15/57/11 22/58/11 16/59/11

v -0.407988 1.08027 0.252299
vt -31.3419 -0.693784
f 22/58/11 15/57/11 23/60/11

vt -46.2585 23.2596
vn -0.710024 -0.113806 0.69492
vt 3.97969 21.8542
vt 5.13777 23.2596
f 12/61/12 23/62/12 15/63/12

v -0.203621 -0.209425 0.249897
vt -47.4293 21.8542
f 23/62/12 12/61/12 24/64/12

vt -24.375 -35.1786
vn -0.00618984 0.704626 0.709552
v -0.388416 -0.209125 0.247986
vt -30.4907 -36.5928
vt -23.2149 -36.5928
f 12/65/13 25/66/13 24/67/13

vt -32.5 -35.1786
f 25/66/13 12/65/13 13/68/13

vt -47.8406 40.6783
vn -0.572067 -0.427917 0.699734
vt -22.8997 39.2641
vt -20.8904 40.6783
f 3/69/14 25/70/14 13/71/14

v -0.0274822 -0.688284 0.250042
vt -46.5175 39.2641
f 25/70/14 3/69/14 26/72/14

vt 67.4369 22.3449
vn 0.556087 -0.429749 0.711395
v 0.334972 -0.2103 0.255464
vt 42.496 20.9307
vt 66.1138 20.9307
f 3/73/15 27/74/15 26/75/15

vt 40.4867 22.3449
f 27/74/15 3/73/15 2/76/15

vt 5.30506e-015 -35.1786
v 0.150177 -0.21 0.253554
vt -9.2851 -36.5928
vt -2.00931 -36.5928
f 2/77/13 28/78/13 27/79/13

vt -8.125 -35.1786
f 28/78/13 2/77/13 11/80/13

vt 51.3963 0.711567
vn 0.695135 -0.116089 0.709444
vt 1.15809 -0.693783
vt 52.5671 -0.693784
f 11/81/16 22/82/16 28/83/16

vt 8.06106e-015 0.711566
f 22/82/16 11/81/16 16/84/16

vt -0.987426 1.15809
vt -51.75 23.2149
vt -51.75 9.2851
f 22/85/6 24/86/6 28/87/6

vt -0.987426 31.3419
f 24/86/6 22/85/6 23/88/6

vt -70.5915 16.25
f 24/86/6 26/89/6 28/87/6

vt -51.75 30.4907
f 26/89/6 24/86/6 25/90/6

vt -51.75 2.00931
f 28/87/6 26/89/6 27/91/6

vt -20.8904 17
vn -0.798682 -0.601664 -0.010367
vt -47.8406 1
vt -20.8904 1
f 8/92/17 3/93/17 13/94/17

vt -47.8406 17
f 3/93/17 8/92/17 1/95/17

vt 51.3963 12.0966
vn 0.709668 -0.111169 -0.69571
vt 1.15809 13.502
vt 9.22233e-015 12.0966
f 10/96/18 21/97/18 17/98/18

vt 52.5671 13.502
f 21/97/18 10/96/18 20/99/18

vt -8.125 47.9065
vn 0.00843568 0.709577 -0.704577
vt -2.00931 49.3207
vt -9.2851 49.3207
f 10/100/19 5/101/19 20/102/19

vt -5.63993e-014 47.9065
f 5/101/19 10/100/19 4/103/19

vt 70.5915 16.25
vt 51.75 2.00931
f 6/104/4 20/48/4 5/105/4

f 20/48/4 6/104/4 19/49/4

vt 51.75 30.4907
f 19/49/4 6/104/4 7/106/4

vt -30.4907 49.3207
vt -24.375 47.9065
vt -23.2149 49.3207
f 7/107/19 9/108/19 19/109/19

vt -32.5 47.9065
f 9/108/19 7/107/19 8/110/19

g Mesh2 Component1 skpB1A7_1 Model

l 2 3

l 4 2

l 1 4

l 3 1

l 13 3

l 12 13

l 15 12

l 16 15

l 11 16

l 11 2

l 10 11

l 10 4

l 17 10

l 14 17

l 9 14

l 8 9

l 1 8

l 1 6

l 6 5

l 7 6

l 8 7

l 13 8

l 25 13

l 24 25

l 23 24

l 22 23

l 28 22

l 11 28

l 28 27

l 2 27

l 27 26

l 26 3

l 25 26

l 22 16

l 16 17

l 21 17

l 18 21

l 19 18

l 7 19

l 9 19

l 12 9

l 24 12

l 14 18

l 15 14

l 23 15

l 21 20

l 20 5

l 20 10

l 5 4

