#
## Alias OBJ Material File
# Exported from SketchUp, (c) 2000-2012 Trimble Navigation Limited

newmtl _0103_Blue_
Ka 0.000000 0.000000 0.000000
Kd 0.000000 0.000000 1.000000
Ks 0.330000 0.330000 0.330000

newmtl _0020_Red_
Ka 0.000000 0.000000 0.000000
Kd 1.000000 0.000000 0.000000
Ks 0.330000 0.330000 0.330000

newmtl _0065_Lime_
Ka 0.000000 0.000000 0.000000
Kd 0.000000 1.000000 0.000000
Ks 0.330000 0.330000 0.330000

newmtl FrontColor
Ka 0.000000 0.000000 0.000000
Kd 1.000000 1.000000 1.000000
Ks 0.330000 0.330000 0.330000

